{
  "variables": {
    "access_key": "{{ env `aws_access_key` }}",
    "secret_key": "{{ env `aws_secret_key` }}"
  },
  "builders": [
    {
        "type": "amazon-ebs",
        "access_key": "{{ user `access_key` }}",
        "secret_key": "{{ user `secret_key` }}",
        "region": "eu-central-1",
        "source_ami_filter": {
            "filters": {
                "virtualization-type": "hvm",
                "name": "debian-10-amd64-20200803-347",
                "root-device-type": "ebs"
            },
            "owners": [
                "136693071363"
            ],
            "most_recent": true
        },
        "instance_type": "t2.micro",
        "ssh_username": "admin",
        "ami_name": "onion-packer {{timestamp}}"
    }
  ],
  "provisioners": [
   {
     "type": "file",
     "source": "/home/user/.ssh/aws_id_rsa.pub",
     "destination": "/tmp/aws_id_rsa.pub"
   },
   {
     "type": "file",
     "source": "static-html",
     "destination": "/tmp"
   },
   {
     "type": "file",
     "source": "tor",
     "destination": "/tmp"
   },
   {
     "type": "file",
     "source": "nginx",
     "destination": "/tmp"
   },
   {
     "type": "shell",
     "script": "scripts/aws_build.sh"
   }
 ]
}
